<?xml version="1.0" encoding="UTF-8"?>
<svg id="Camada_2" data-name="Camada 2" xmlns="http://www.w3.org/2000/svg" viewBox="0 0 31.99 26">
  <defs>
    <style>
      .cls-1 {
        fill: #fff;
      }
    </style>
  </defs>
  <g id="Layer_1" data-name="Layer 1">
    <path class="cls-1" d="m31.99,3.08c-1.18.52-2.44.88-3.77,1.03,1.35-.81,2.4-2.1,2.89-3.63-1.27.75-2.67,1.3-4.17,1.59-1.2-1.28-2.9-2.07-4.79-2.07-3.62,0-6.56,2.94-6.56,6.56,0,.51.06,1.02.17,1.5-5.45-.27-10.29-2.89-13.53-6.86-.56.97-.89,2.1-.89,3.3,0,2.28,1.16,4.29,2.92,5.46-1.08-.03-2.09-.33-2.97-.82,0,.03,0,.06,0,.08,0,3.18,2.26,5.83,5.26,6.44-.55.15-1.13.23-1.73.23-.42,0-.83-.04-1.23-.12.83,2.61,3.26,4.5,6.13,4.56-2.24,1.76-5.07,2.81-8.15,2.81-.53,0-1.05-.03-1.57-.09,2.9,1.86,6.35,2.95,10.06,2.95,12.07,0,18.67-10,18.67-18.67,0-.28,0-.57-.02-.85,1.28-.93,2.4-2.08,3.28-3.4Z"/>
  </g>
</svg>