<svg xmlns="http://www.w3.org/2000/svg" width="169" height="49.5" viewBox="0 0 169 49.5">
  <g id="Grupo_4606" data-name="Grupo 4606" transform="translate(-19 -21)">
    <g id="Grupo_2027" data-name="Grupo 2027" transform="translate(-1079.443 -437.047)">
      <path id="Caminho_3919" data-name="Caminho 3919" d="M1188.22,522.857a1.692,1.692,0,0,1,.1.658c0,.087.009.174.014.258.008.178.017.355.036.53s.02.339.02.51c0,.687.011,1.378.078,2.061a8.339,8.339,0,0,1-.051,1.752,6.6,6.6,0,0,0,.058,1.719,16.645,16.645,0,0,1,.091,1.938.793.793,0,0,1-.031.163c-.538.1-1.069.217-1.6.3-.771.119-1.546.211-2.319.322-.447.064-.892.141-1.336.22-.231.041-.243.06-.231.277.034.605.08,1.211.107,1.817.018.4.013.8.014,1.2,0,.709,0,1.417,0,2.126.006,1.519.156,3.035.033,4.558a19.23,19.23,0,0,0,.024,2.34c.072,1.7.164,3.408.249,5.112.021.411.049.821.068,1.232.013.26-.049.336-.311.335-.421,0-.844,0-1.262-.043-.879-.079-1.756-.185-2.635-.273-.235-.024-.473-.011-.708-.032-.562-.05-1.123-.111-1.685-.165-.378-.037-.758-.063-1.135-.1a2.263,2.263,0,0,1-.417-.1.454.454,0,0,1-.341-.476c-.035-.738-.117-1.473-.159-2.211-.027-.471-.007-.944-.021-1.417-.03-.983-.07-1.966-.1-2.949-.016-.482-.039-.965-.036-1.447.008-1.328-.132-2.647-.222-3.969-.029-.42-.048-.841-.074-1.262-.04-.636-.076-1.271-.124-1.906-.019-.254-.066-.506-.1-.8-.329.067-.648.123-.963.2-.579.137-1.155.285-1.732.428-.442.109-.516.106-.8-.036-.041-.583-.1-1.165-.158-1.747-.01-.214-.022-.424-.026-.648.072-1.948.028-3.909.107-5.871q.01-.246.022-.491c.009-.164.019-.328.03-.491a1.024,1.024,0,0,1,.4.117,1.814,1.814,0,0,1,.335.235c.42.359.76.846,1.386.73a4.29,4.29,0,0,0,.537-.136c.545-.168,1.089-.335,1.636-.495.946-.277,1.9-.533,2.852-.78,1.036-.269,2.034-.647,3.042-1,.29-.1.588-.18.88-.275a4.1,4.1,0,0,0,.665-.238,11.137,11.137,0,0,1,1.99-.737c.628-.194,1.246-.42,1.873-.614l.228-.069.229-.068a1.907,1.907,0,0,1,.206-.072c.07-.02.141-.037.213-.052.3-.074.586-.074.868-.138Z" transform="translate(-50.314 -45.238)" fill="#2c2929"/>
      <path id="Caminho_3920" data-name="Caminho 3920" d="M1131,539.444c.286,1.383,1.616,1.678,2.65,2.417a.555.555,0,0,1,.073.369c-.591,1.92-2.585,3.176-2.344,5.3.009.157.02.313.03.468s.024.307.033.461c.048.79.077,1.581.116,2.371.01.215.038.431.04.646a1.214,1.214,0,0,0,1.72,1.031,1.3,1.3,0,0,1,.2-.088.332.332,0,0,0,.229-.265,7.132,7.132,0,0,0,.171-1.28c.044-1.174-.084-2.339-.142-3.507-.019-.38-.041-.759-.063-1.138a3.415,3.415,0,0,1,0-.58c.306-1.347,1.266-2.381,1.709-3.71.148-.591.813-1.625.074-1.92s-1.92-.148-2.068-1.108a.552.552,0,0,1,.074-.369,7.134,7.134,0,0,0,2.846-1.733c.115-.107.228-.216.333-.332.087-.119.175-.246.265-.377s.181-.265.274-.4c.43-.68,1.25-1.409,2.071-1.09a.455.455,0,0,1,.182.228,3.29,3.29,0,0,1,.163,1.4c0,.164-.009.322-.015.466s-.01.292-.016.437-.01.289-.012.432q0,.241-.012.481c-.052,1.443-.222,2.884-.2,4.3,0,.2,0,.378,0,.558s0,.36,0,.54,0,.359,0,.539c0,.092,0,.184,0,.276.056.851.084,1.74.061,2.588,0,.089,0,.178.008.267.02.622.057,1.241.087,1.853,0,.095.008.19.011.284,0,.158.007.316.008.472-.033.978.024,1.952.035,2.934q-.005.182-.022.365a8.985,8.985,0,0,1-.466,2.257c-.058.16-.124.318-.194.474-.035.078-.072.156-.109.232a4.317,4.317,0,0,1-1.515,1.644c-.075.042-.152.082-.229.12a11.734,11.734,0,0,1-1.932.727,5.774,5.774,0,0,1-1.157.122c-.143.012-.289-.015-.431,0a4.694,4.694,0,0,1-3.078-.8c-.085-.053-.168-.108-.252-.165a6.064,6.064,0,0,1-1.885-2.192q-.058-.105-.111-.214t-.1-.221a7.459,7.459,0,0,1-.436-1.758c-.131-.82-.2-1.644-.261-2.469-.029-.413-.054-.826-.042-1.259.153-1.834,1.556-3.237,1.926-5.084a.565.565,0,0,0-.148-.369c-.886-.739-2.364-.886-2.319-2.295-.017-.213-.022-.429-.042-.644a.475.475,0,0,1,.332-.525c.181-.073.363-.144.547-.206q.537-.182,1.076-.361l.216-.071c.128-.045.259-.094.392-.14a6.862,6.862,0,0,1,1.465-.464A.765.765,0,0,1,1131,539.444Z" transform="translate(-19.777 -53.386)" fill="#2c2929"/>
      <path id="Caminho_3921" data-name="Caminho 3921" d="M1121.395,499.727c-.117.074-.208.141-.307.194-.706.377-1.368.832-2.106,1.149-.292.126-.569.286-.856.423-.233.111-.248.117-.406-.078a2.69,2.69,0,0,0-1.494-.974,3.727,3.727,0,0,0-2.331.008,3.25,3.25,0,0,0-1.22.865,3.4,3.4,0,0,0-.878,2.09,6.985,6.985,0,0,0,.024,1.967,2.757,2.757,0,0,0,.9,1.577,1.923,1.923,0,0,1,.248.23,1.645,1.645,0,0,0,.971.558c.392.077.791.124,1.188.164a1.223,1.223,0,0,0,.425-.056,3.059,3.059,0,0,0,1.634-1.04,1.467,1.467,0,0,0,.33-.722c-.7-.013-1.382.188-2.109.133,0-.18-.006-.361,0-.541.028-.719.061-1.437.091-2.156.012-.277.026-.554.033-.831.007-.243.046-.3.276-.31,1.448-.037,2.9-.068,4.344-.1.452-.011.9-.024,1.356-.035.32-.008.4.053.371.37a3.843,3.843,0,0,0-.076.93q-.021.233-.05.464a6.239,6.239,0,0,1-.31,1.367c-.13.356-.19.737-.316,1.095-.137.386-.307.76-.475,1.135-.126.281-.275.552-.405.831a3.313,3.313,0,0,1-.917,1.145c-.213.178-.41.374-.62.555a8.167,8.167,0,0,1-1.442,1q-.127.069-.257.133a2.613,2.613,0,0,1-.768.314l-.231.081c-.153.054-.3.11-.464.163a3.388,3.388,0,0,1-.47.107c-.092.019-.185.037-.277.053a8.967,8.967,0,0,1-2.512.085,8.627,8.627,0,0,1-1.318-.312c-.327-.089-.645-.206-.969-.306a3.721,3.721,0,0,1-1.264-.682,4.92,4.92,0,0,1-1.012-1.068,5.368,5.368,0,0,1-.52-.977,13.005,13.005,0,0,1-.562-1.627,9.473,9.473,0,0,1-.264-2.688,14.54,14.54,0,0,1,.175-1.56,19.432,19.432,0,0,1,.436-1.952,5.633,5.633,0,0,1,1.037-2.046c.175-.228.357-.45.537-.673l.135-.168a4.844,4.844,0,0,1,2.385-1.613q.142-.052.286-.1a6.979,6.979,0,0,1,1.794-.32c.441-.021.88-.075,1.319-.114a5.359,5.359,0,0,1,2.478.355c.392.155.79.3,1.169.477a7.639,7.639,0,0,1,1.326.775A7.945,7.945,0,0,1,1121,499,2.082,2.082,0,0,1,1121.395,499.727Z" transform="translate(-5.533 -26.379)" fill="#2c2929"/>
      <path id="Caminho_3922" data-name="Caminho 3922" d="M1127.845,461.165c.489-.036,1.005-.122,1.486-.136l.276-.027c.276-.026.552-.052.829-.073.353-.028.363,0,.5.315.247.564.518,1.118.754,1.686.37.891.718,1.791,1.081,2.685a3.776,3.776,0,0,0,.383.729,1.041,1.041,0,0,0,.009-.14c-.07-1.2-.067-2.4-.213-3.6a4.44,4.44,0,0,1-.005-.615c.005-.257.015-.514.027-.77.007-.152.023-.3.034-.461.268-.05.507-.105.75-.137.529-.069,1.061-.118,1.59-.191a.329.329,0,0,1,.413.221c.063.172.116.348.179.519.057.153.116.306.185.454.263.568.511,1.144.8,1.7.438.837.905,1.658,1.361,2.486.019.034.046.065.106.15,0-.157,0-.261,0-.364q-.031-.708-.065-1.416c-.008-.164-.019-.328-.027-.492-.024-.492-.046-.984-.073-1.475-.018-.318-.054-.634-.064-.952-.011-.346,0-.693,0-1.068a2.461,2.461,0,0,1,.372-.073c.4-.014.8-.046,1.2-.087q.2-.021.4-.045a4.844,4.844,0,0,1,1.336-.086,1.262,1.262,0,0,1,.288.075c.237.052.328.188.282.371a6.912,6.912,0,0,0,.063,2.962c.046.158.1.314.145.47q.064.194.114.393c.034.133.063.266.089.4a9.778,9.778,0,0,1,.063,2.962q-.038.175-.089.346a4.6,4.6,0,0,1-1.341,2.107,3.736,3.736,0,0,1-.326.271,3.631,3.631,0,0,1-.359.235c-.126.094-.256.183-.392.266a4.988,4.988,0,0,1-.876.427,4.27,4.27,0,0,1-.629.026.579.579,0,0,1-.631-.37c-.237-.59-.515-1.163-.76-1.75-.47-1.126-.927-2.257-1.39-3.386l-.07.01a.585.585,0,0,0-.036.151c.021.7.043,1.395.071,2.092.023.575.049,1.15.084,1.724.019.307.057.613.092.918.029.261,0,.322-.262.335-.482.023-.964.025-1.447.03-.329,0-.657-.005-.986-.007a.464.464,0,0,1-.469-.35c-.211-.512-.472-1-.718-1.5-.155-.312-.344-.609-.476-.931a21.994,21.994,0,0,0-1.208-2.32,11.076,11.076,0,0,1-.631-1.264,6.775,6.775,0,0,0-.557-1.034l-.123-.2c-.416-.63-.7-1.318-1.07-1.966A1.286,1.286,0,0,1,1127.845,461.165Z" transform="translate(-20.523 -1.281)" fill="#2c2929"/>
      <path id="Caminho_3923" data-name="Caminho 3923" d="M1177.022,467.9c.06-.24.131-.481.2-.724.036-.121.074-.243.11-.365a7.845,7.845,0,0,0,.224-3.787q-.048-.209-.114-.417c-.835-1.4-1.2-3.951.907-4.422a2.961,2.961,0,0,1,.4-.092,10.752,10.752,0,0,1,2.118.027c.142.006.283.01.422.008.276,0,.559,0,.843,0,.142,0,.284.04.431.033.876,0,1.2,0,2.152.042.218.014.415-.047.456.046.061.137-.076.354-.079,1.063,0,.108-.011.4-.021.5a14.77,14.77,0,0,0-.174,1.536c0,.251-.476.123-.73.162a1.551,1.551,0,0,1-.4.008,2.221,2.221,0,0,1-.444-.064c-.817-.253-2.211-1.052-2.791-.24a1.3,1.3,0,0,0-.195.453.535.535,0,0,0,.045.456c.091.137.183.137.319.182.821.137,1.641-.046,2.48.011.124.006.248.016.371.034l.33-.029.33-.034q.331-.036.663-.081c0,1.3-.1,2.538-.147,3.8a3.39,3.39,0,0,1-.868.045l-.923-.021-.308-.007a5.494,5.494,0,0,1-1.708-.388,1.614,1.614,0,0,0-.4-.044.966.966,0,0,0-.91.772.724.724,0,0,0,.148.361.686.686,0,0,0,.447.205c.12.032.245.057.358.082.135.028.272.051.411.07.418.058.855.082,1.3.107.109,0,.216,0,.324-.007.322-.019.645-.061.968-.066.367-.006.735.033,1.1.052a31.935,31.935,0,0,1-.09,3.645c-.392,0-.789.008-1.185,0-.328-.008-.655-.043-.982-.057-.522-.024-1.045-.044-1.567-.059-.182,0-.367.032-.548.017a1.984,1.984,0,0,1-.514-.1q-.177-.112-.353-.237t-.35-.262a5.471,5.471,0,0,1-1.894-1.876A1.686,1.686,0,0,0,1177.022,467.9Z" transform="translate(-54.685)" fill="#2c2929"/>
      <path id="Caminho_3924" data-name="Caminho 3924" d="M1099.346,566.4c.713-.675,2.559-1.339,1.747-2.3-.886-.96-1.92-2.216-.64-3.275a4.74,4.74,0,0,1,.428-.354,2.641,2.641,0,0,1,1.635-.536c.249,0,.494.007.737.032.081.008.161.019.241.033a2.365,2.365,0,0,1,.961.34,3.733,3.733,0,0,1,.414.3c.876.8,2.058.947,3.018,1.464,1.4.739-.3,2.29-.591,3.324-.148.739-.665,1.329-.611,2.085,0,.18.012.354.019.528a12.966,12.966,0,0,1-.21,2.852,6.135,6.135,0,0,1-.444,1.208c-.133.322-.279.64-.438.95a3.22,3.22,0,0,1-1.211,1.362,1.074,1.074,0,0,0-.133.077,2.1,2.1,0,0,1-1.4.354,3.363,3.363,0,0,1-1.141-.229,1.975,1.975,0,0,1-.572-.294,4.355,4.355,0,0,1-1.042-1.041,9.277,9.277,0,0,1-1.141-2.035,11.783,11.783,0,0,1-.383-1.71c-.061-.345-.1-.692-.13-1.039a3.923,3.923,0,0,1-.011-.524,2.131,2.131,0,0,1,.438-1.053A6.568,6.568,0,0,1,1099.346,566.4Zm4.364,1.451c.263-1.461,2.109-2.421,1.888-3.972-1.7,1.182-4.062,2.29-4.652,4.337a5.131,5.131,0,0,0,.141.869c.025.1.054.2.088.293.216.553.56,1.3,1.219,1.27a.957.957,0,0,0,.688-.43,3.468,3.468,0,0,0,.546-1.892.673.673,0,0,0,.041-.237Q1103.687,567.967,1103.709,567.847Z" transform="translate(0 -71.117)" fill="#2c2929"/>
      <path id="Caminho_3925" data-name="Caminho 3925" d="M1159.716,502.357a2.1,2.1,0,0,1-.052-.411,2.622,2.622,0,0,1,.012-.332c.054-.55.257-1.086.34-1.674.044-.164.093-.325.147-.483s.115-.313.182-.463a11.269,11.269,0,0,0,.793-1.146q.125-.2.247-.409c.4-.7.81-1.334,1.234-2.008a2.3,2.3,0,0,1,.3-.356,2.2,2.2,0,0,1,.454-.338,2.251,2.251,0,0,1,.518-.209,2.281,2.281,0,0,1,2.3,1,3.868,3.868,0,0,1,.238.379,8.616,8.616,0,0,1,.754,2.132c.065.292.119.583.164.871.019.158.033.311.039.465a12.68,12.68,0,0,1-.615,4.5q-.046.185-.091.368c-.03.122-.06.244-.09.367a2.8,2.8,0,0,1-.179.507,4.331,4.331,0,0,1-.258.474c-.347.515-.864,1.179-1.529.958a1.45,1.45,0,0,1-.346-.15c-.12-.128-.3-.083-.393-.219a2.124,2.124,0,0,0-.865-.9,1.7,1.7,0,0,0-.411-.15c-1.5.182-3.281-.457-2.876-2.269C1159.733,502.684,1159.719,502.518,1159.716,502.357Zm3.073-1.854a2.528,2.528,0,0,0,.263,1.393,1.887,1.887,0,0,0,.229.361c.284.365.831.73,1.286.411a1.27,1.27,0,0,0,.249-.278,7.57,7.57,0,0,0,.58-2.532,3.631,3.631,0,0,0-.012-.416,1.643,1.643,0,0,0-.164-.807,1.208,1.208,0,0,0-.522-.561.922.922,0,0,0-.785-.014,1.082,1.082,0,0,0-.3.187,2.022,2.022,0,0,0-.547.684c-.046.228-.182.41-.2.624-.032.164-.058.323-.082.467C1162.778,500.181,1162.782,500.343,1162.789,500.5Z" transform="translate(-42.732 -25.413)" fill="#2c2929"/>
    </g>
    <text id="Content_Tools" data-name="Content Tools" transform="translate(99 51)" fill="#211e1e" font-size="14" font-family="Lato-Regular, Lato" letter-spacing="0.02em"><tspan x="0" y="0">Content Tools</tspan></text>
    <line id="Linha_611" data-name="Linha 611" y2="49" transform="translate(79.5 21.5)" fill="none" stroke="#e3e3e3" stroke-width="1"/>
  </g>
</svg>
